Cuenta not found:  mercaderias
Cuenta not found:  documentos por cobrar
Cuenta not found:  clientes
Cuenta not found:  inmuebles
Cuenta not found:  mobiliario y equipo
Cuenta not found:  gastos de organizacion
Cuenta not found:  vehiculos
Cuenta not found:  proveedores
Cuenta not found:  prestamos bancarios
Cuenta not found:  seguros pagados por anticipado
Cuenta not found:  ventas
Cuenta not found:  compras
Cuenta not found:  documentos por pagar
Cuenta not found:  cliente
Cuenta not found:  ventas
Cuenta not found:  clientes
Cuenta not found:  sueldo administraticion
Cuenta not found:  sueldos ventas
Cuenta not found:  bonificacion administracion
Cuenta not found:  bonificacion ventas
Cuenta not found:  retencion cuota laboral igss
Cuenta not found:  cuota patronal administracion
Cuenta not found:  cuota patronal ventas
Cuenta not found:  cuentas por pagar
Cuenta not found:  prestamos bancarios
